<svg xmlns="http://www.w3.org/2000/svg" width="150" height="115">
	<g fill="none" fill-rule="evenodd">
		<path fill="#EF3124" d="M0 0h150v110c0 2.761424-2.238576 5-5 5H5c-2.76142375 0-5-2.238576-5-5V0z"/>
		<path fill="#FFF"
			  d="M58 83.7426632v-7.0650728h34v7.0650728H58zM70.142948 53.965343h9.449314l-4.5041165-14.1739709h-.1767151L70.142948 53.965343zm11.0372765-16.7904158l10.025052 29.9044491h-7.4185031l-2.2520582-7.1088981H68.1117838l-2.4287734 7.1088981h-6.9763618l10.5202079-29.9044491C70.24721 34.2746778 71.4361497 32 75.2648607 32c3.8283576 0 4.9459044 2.2838669 5.9153638 5.1749272z"/>
	</g>
</svg>
