<?xml version="1.0" encoding="UTF-8"?>
<!DOCTYPE svg PUBLIC "-//W3C//DTD SVG 1.1//EN" "http://www.w3.org/Graphics/SVG/1.1/DTD/svg11.dtd">
<!-- Creator: CorelDRAW 2018 (64-Bit) -->
<svg xmlns="http://www.w3.org/2000/svg" xml:space="preserve" width="179.487mm" height="72.5509mm" version="1.1" style="shape-rendering:geometricPrecision; text-rendering:geometricPrecision; image-rendering:optimizeQuality; fill-rule:evenodd; clip-rule:evenodd"
viewBox="0 0 17976.32 7266.26"
 xmlns:xlink="http://www.w3.org/1999/xlink">
 <defs>
  <style type="text/css">
   <![CDATA[
    .fil0 {fill:#34302F;fill-rule:nonzero}
   ]]>
  </style>
 </defs>
 <g id="Слой_x0020_1">
  <metadata id="CorelCorpID_0Corel-Layer"/>
  <path class="fil0" d="M2058.65 3372.69c-1708.23,0 -1905.36,-735.86 -1905.36,-1165.11l0 -48.18 1064.37 0c13.14,197.11 127.04,516.83 968.02,516.83l61.25 0c858.53,0 954.88,-170.79 954.88,-345.97 0,-188.39 -100.65,-306.65 -854.11,-328.55l-560.66 -13.14c-1217.66,-35.05 -1589.91,-446.78 -1589.91,-954.82l0 -39.46c0,-486.18 289.04,-994.29 1773.9,-994.29l302.28 0c1541.79,0 1892.21,538.75 1892.21,1029.33l0 43.82 -1060.05 0c-21.85,-122.68 -87.62,-389.82 -941.74,-389.82l-70.09 0c-788.34,0 -845.29,140.16 -845.29,280.32 0,140.17 87.52,267.14 753.34,280.32l547.53 8.73c1226.37,21.9 1721.38,319.79 1721.38,967.99l0 61.33c0,538.79 -271.6,1090.67 -1909.75,1090.67l-302.18 0z"/>
  <path class="fil0" d="M8190.87 1642.55c0,-372.29 -214.68,-854.11 -1318.42,-854.11 -1121.34,0 -1318.42,481.82 -1318.42,854.11l0 52.54c0,372.33 214.64,884.79 1318.42,884.79 1095,0 1318.42,-499.32 1318.42,-876.03l0 -61.3zm-1222.07 -1642.55c2049.89,0 2290.82,1029.33 2290.82,1611.89l0 131.4c0,573.83 -236.51,1629.4 -2290.82,1629.4l-188.29 0c-2063.07,0 -2295.28,-1055.57 -2295.28,-1629.4l0 -131.4c0,-582.56 232.21,-1611.89 2295.28,-1611.89l188.29 0z"/>
  <path class="fil0" d="M2299.57 4655.67l-604.47 1222.08 1235.2 0 -630.73 -1222.08zm1007.42 1957.93l-1975.44 0 -293.46 595.7 -1038.1 0 1646.88 -3258.78 1322.82 0 1743.32 3258.78 -1099.43 0 -306.6 -595.7z"/>
  <path class="fil0" d="M6578.98 7257.49c-1747.64,0 -2032.37,-1112.53 -2032.37,-1725.79l0 -1581.18 1024.94 0 0 1519.88c0,420.49 188.39,941.75 1077.49,941.75 876.1,0 1068.8,-521.26 1068.8,-941.75l0 -1519.88 1020.53 0 0 1581.18c0,613.26 -332.86,1725.79 -2001.71,1725.79l-157.68 0z"/>
  <polygon class="fil0" points="10473.06,4721.39 9071.44,4721.39 9071.44,3950.52 12908.4,3950.52 12908.4,4721.39 11502.32,4721.39 11502.32,7209.3 10473.06,7209.3 "/>
  <path class="fil0" d="M16723.49 5536.12c0,-372.33 -214.64,-854.12 -1318.42,-854.12 -1121.3,0 -1318.42,481.79 -1318.42,854.12l0 52.54c0,372.32 214.64,884.78 1318.42,884.78 1095.04,0 1318.42,-499.35 1318.42,-876.03l0 -61.29zm-1222.07 -1642.55c2049.93,0 2290.83,1029.29 2290.83,1611.89l0 131.36c0,573.79 -236.51,1629.44 -2290.83,1629.44l-188.28 0c-2063.08,0 -2295.28,-1055.65 -2295.28,-1629.44l0 -131.36c0,-582.6 232.2,-1611.89 2295.28,-1611.89l188.28 0z"/>
  <path class="fil0" d="M17528.13 3349.2c0,-25.29 -8.37,-43.77 -47.13,-43.77l-161.71 0 0 85.96 161.71 0c38.76,0 47.13,-16.9 47.13,-42.19zm-382.4 306.65l0 -454.9 377.39 0c134.79,0 175.21,48.87 175.21,109.57l0 6.71c0,62.36 -48.84,92.67 -89.32,99.35 65.71,13.5 96.1,55.65 96.1,102.82l0 82.54c0,21.9 3.36,37.06 10.04,45.43l0 8.48 -171.78 0c-6.75,-6.71 -15.23,-13.5 -15.23,-38.76l0 -47.13c0,-45.54 -11.73,-64.06 -57.24,-64.06l-151.6 0 0 149.95 -173.56 0zm697.49 -237.5c0,-141.58 -45.51,-316.79 -422.89,-316.79l-3.36 0c-385.75,0 -427.94,170.2 -427.94,326.82 0,149.95 42.18,330.25 427.94,330.25l3.36 0c372.33,0 422.89,-192.1 422.89,-340.28zm-992.29 25.2l0 -31.98c0,-183.65 97.76,-424.51 534.07,-424.51l64.03 0c436.31,0 527.29,240.86 527.29,427.87l0 28.62c0,197.15 -133.09,429.59 -530.72,429.59l-60.6 0c-426.28,0 -534.07,-232.44 -534.07,-429.59z"/>
 </g>
</svg>
